<?xml version="1.0" encoding="utf-8"?>
<!-- Generator: Adobe Illustrator 18.0.0, SVG Export Plug-In . SVG Version: 6.00 Build 0)  -->
<!DOCTYPE svg PUBLIC "-//W3C//DTD SVG 1.1//EN" "http://www.w3.org/Graphics/SVG/1.1/DTD/svg11.dtd">
<svg version="1.1" id="Warstwa_1" xmlns="http://www.w3.org/2000/svg" xmlns:xlink="http://www.w3.org/1999/xlink" x="0px" y="0px"
	 viewBox="0 0 600 600" enable-background="new 0 0 600 600" xml:space="preserve">
<rect x="286.2" y="-54" transform="matrix(0.7071 0.7071 -0.7071 0.7071 198.392 -163.2381)" fill="#231F20" width="20" height="423.7"/>
<rect x="84.4" y="433.1" transform="matrix(0.7071 0.7071 -0.7071 0.7071 400.0906 -79.688)" fill="#231F20" width="423.7" height="20"/>
</svg>
