<?xml version="1.0" encoding="utf-8"?>
<!-- Generator: Adobe Illustrator 18.0.0, SVG Export Plug-In . SVG Version: 6.00 Build 0)  -->
<!DOCTYPE svg PUBLIC "-//W3C//DTD SVG 1.1//EN" "http://www.w3.org/Graphics/SVG/1.1/DTD/svg11.dtd">
<svg version="1.1" id="Warstwa_1" xmlns="http://www.w3.org/2000/svg" xmlns:xlink="http://www.w3.org/1999/xlink" x="0px" y="0px"
	 viewBox="200 200 600 600" enable-background="new 200 200 600 600" xml:space="preserve">
<path d="M350.5,254.2c-53,0-96.3,43.4-96.3,96.3v298.9c0,53,43.4,96.3,96.3,96.3h298.9c53,0,96.3-43.3,96.3-96.3V350.5
	c0-53-43.3-96.3-96.3-96.3H350.5L350.5,254.2z M374.8,335.3c25.4,0,41,16.7,41.5,38.6c0,21.4-16.1,38.6-42,38.6h-0.5
	c-24.9,0-41-17.1-41-38.6C332.8,352,349.4,335.3,374.8,335.3L374.8,335.3z M593.7,437.8c48.8,0,85.5,31.9,85.5,100.5v128.1h-74.2
	V546.9c0-30-10.7-50.5-37.6-50.5c-20.5,0-32.7,13.8-38.1,27.1c-2,4.8-2.4,11.4-2.4,18.1v124.7h-74.2c0,0,1-202.4,0-223.4h74.3v31.6
	C536.6,459.4,554.3,437.8,593.7,437.8L593.7,437.8z M337.2,443h74.2v223.4h-74.2V443L337.2,443z"/>
</svg>
