<?xml version="1.0" encoding="utf-8"?>
<!-- Generator: Adobe Illustrator 18.0.0, SVG Export Plug-In . SVG Version: 6.00 Build 0)  -->
<!DOCTYPE svg PUBLIC "-//W3C//DTD SVG 1.1//EN" "http://www.w3.org/Graphics/SVG/1.1/DTD/svg11.dtd">
<svg version="1.1" id="Warstwa_1" xmlns="http://www.w3.org/2000/svg" xmlns:xlink="http://www.w3.org/1999/xlink" x="0px" y="0px"
	 viewBox="0 0 600 600" enable-background="new 0 0 600 600" xml:space="preserve">
<rect x="270" y="45" width="60" height="353"/>
<rect x="27.5" y="452.5" width="545" height="60"/>
<rect x="27.5" y="347.4" width="60" height="165.1"/>
<rect x="512.5" y="347.4" width="60" height="165.1"/>
<polygon points="311,350.6 268.6,398 143.5,258.2 185.9,210.7 "/>
<polygon points="330.4,398 288,350.6 412.2,211.4 454.6,258.8 "/>
</svg>
