<?xml version="1.0" encoding="utf-8"?>
<!-- Generator: Adobe Illustrator 18.0.0, SVG Export Plug-In . SVG Version: 6.00 Build 0)  -->
<!DOCTYPE svg PUBLIC "-//W3C//DTD SVG 1.1//EN" "http://www.w3.org/Graphics/SVG/1.1/DTD/svg11.dtd">
<svg version="1.1" id="Warstwa_1" xmlns="http://www.w3.org/2000/svg" xmlns:xlink="http://www.w3.org/1999/xlink" x="0px" y="0px"
	 viewBox="0 0 600 600" enable-background="new 0 0 600 600" xml:space="preserve">
<g>
	<rect x="35.7" y="295.1" fill="#231F20" width="521.4" height="10"/>
	
		<rect x="433.9" y="245.7" transform="matrix(0.7071 0.7071 -0.7071 0.7071 325.7832 -285.1516)" fill="#231F20" width="146.4" height="10"/>
	
		<rect x="502.9" y="274.7" transform="matrix(0.7071 0.7071 -0.7071 0.7071 394.7986 -257.2578)" fill="#231F20" width="10" height="146.4"/>
</g>
</svg>
